<svg width="1440" height="179" viewBox="0 0 1440 179" fill="none" xmlns="http://www.w3.org/2000/svg">
<path d="M-11 75.1118C73 11.2824 380 -28.3888 537 31.6112C618.51 62.7616 808.5 58.6112 769 11.2824C744.5 1.61123 718.5 23.6112 734.5 62.1112C749.638 98.5371 809 129.253 855 147.222C901 165.19 953 177.222 1049 177.222C1145 177.222 1246 153.611 1301 130.611C1348 110.957 1404 85.6112 1491 72.6112C1578 59.6112 1617.5 89.6112 1645.5 89.6112" stroke="#E2F3FD" stroke-width="3" stroke-linecap="round" stroke-linejoin="round" stroke-dasharray="10 10"/>
</svg>
